%YAML 1.1
%TAG !u! tag:unity3d.com,2011:
--- !u!21 &2100000
Material:
  serializedVersion: 6
  m_ObjectHideFlags: 0
  m_CorrespondingSourceObject: {fileID: 0}
  m_PrefabInstance: {fileID: 0}
  m_PrefabAsset: {fileID: 0}
  m_Name: BW
  m_Shader: {fileID: 4800000, guid: bee44b4a58655ee4cbff107302a3e131, type: 3}
  m_ShaderKeywords: _CELPRIMARYMODE_SINGLE _TEXTUREBLENDINGMODE_MULTIPLY _UNITYSHADOWMODE_NONE
  m_LightmapFlags: 4
  m_EnableInstancingVariants: 1
  m_DoubleSidedGI: 0
  m_CustomRenderQueue: 2000
  stringTagMap:
    RenderType: Opaque
  disabledShaderPasses: []
  m_SavedProperties:
    serializedVersion: 3
    m_TexEnvs:
    - _BaseMap:
        m_Texture: {fileID: 0}
        m_Scale: {x: 1, y: 1}
        m_Offset: {x: 0, y: 0}
    - _BumpMap:
        m_Texture: {fileID: 0}
        m_Scale: {x: 1, y: 1}
        m_Offset: {x: 0, y: 0}
    - _CelCurveTexture:
        m_Texture: {fileID: 0}
        m_Scale: {x: 1, y: 1}
        m_Offset: {x: 0, y: 0}
    - _CelStepTexture:
        m_Texture: {fileID: 0}
        m_Scale: {x: 1, y: 1}
        m_Offset: {x: 0, y: 0}
    - _DetailAlbedoMap:
        m_Texture: {fileID: 0}
        m_Scale: {x: 1, y: 1}
        m_Offset: {x: 0, y: 0}
    - _DetailMask:
        m_Texture: {fileID: 0}
        m_Scale: {x: 1, y: 1}
        m_Offset: {x: 0, y: 0}
    - _DetailNormalMap:
        m_Texture: {fileID: 0}
        m_Scale: {x: 1, y: 1}
        m_Offset: {x: 0, y: 0}
    - _EmissionMap:
        m_Texture: {fileID: 0}
        m_Scale: {x: 1, y: 1}
        m_Offset: {x: 0, y: 0}
    - _MainTex:
        m_Texture: {fileID: 0}
        m_Scale: {x: 1, y: 1}
        m_Offset: {x: 0, y: 0}
    - _MetallicGlossMap:
        m_Texture: {fileID: 0}
        m_Scale: {x: 1, y: 1}
        m_Offset: {x: 0, y: 0}
    - _OcclusionMap:
        m_Texture: {fileID: 0}
        m_Scale: {x: 1, y: 1}
        m_Offset: {x: 0, y: 0}
    - _ParallaxMap:
        m_Texture: {fileID: 0}
        m_Scale: {x: 1, y: 1}
        m_Offset: {x: 0, y: 0}
    m_Floats:
    - _AlphaClip: 0
    - _Blend: 0
    - _BumpScale: 1
    - _CelExtraEnabled: 0
    - _CelNumSteps: 5
    - _CelPrimaryMode: 1
    - _Cull: 2
    - _Cutoff: 0.5
    - _DetailNormalMapScale: 1
    - _DstBlend: 0
    - _FlatRimEdgeSmoothness: 0.316
    - _FlatRimLightAlign: 0
    - _FlatRimSize: 0.14
    - _FlatSpecularEdgeSmoothness: 0
    - _FlatSpecularSize: 0.1
    - _Flatness: 0.636
    - _FlatnessExtra: 1
    - _GlossMapScale: 1
    - _Glossiness: 0
    - _GlossyReflections: 1
    - _GradientAngle: 0
    - _GradientCenterX: 0
    - _GradientCenterY: 0
    - _GradientEnabled: 0
    - _GradientSize: 10
    - _LightContribution: 0
    - _LightFalloffSize: 0.0001
    - _LightmapDirectionPitch: 0
    - _LightmapDirectionYaw: 0
    - _Metallic: 0
    - _Mode: 0
    - _OcclusionStrength: 1
    - _OverrideLightmapDir: 0
    - _Parallax: 0.02
    - _QueueOffset: 0
    - _RimEnabled: 0
    - _SelfShadingSize: 0.271
    - _SelfShadingSizeExtra: 0.554
    - _ShadowEdgeSize: 0.246
    - _ShadowEdgeSizeExtra: 0.144
    - _SmoothnessTextureChannel: 0
    - _SpecularEnabled: 0
    - _SpecularHighlights: 1
    - _SrcBlend: 1
    - _Surface: 0
    - _TextureBlendingMode: 0
    - _TextureImpact: 1
    - _UVSec: 0
    - _UnityShadowMode: 0
    - _UnityShadowPower: 0.2
    - _UnityShadowSharpness: 1
    - _VertexColorsEnabled: 0
    - _ZWrite: 1
    m_Colors:
    - _BaseColor: {r: 0.5943396, g: 0.5943396, b: 0.5943396, a: 1}
    - _Color: {r: 0.79187846, g: 0.4764151, b: 1, a: 1}
    - _ColorDim: {r: 0.5188679, g: 0.5188679, b: 0.5188679, a: 0.85056}
    - _ColorDimCurve: {r: 0.5896226, g: 0.83410275, b: 1, a: 0.85056}
    - _ColorDimExtra: {r: 1, g: 1, b: 1, a: 1}
    - _ColorDimSteps: {r: 0, g: 0.89825535, b: 1, a: 0.85056}
    - _ColorGradient: {r: 0.85023, g: 0.85034, b: 0.85045, a: 0.85056}
    - _EmissionColor: {r: 0, g: 0, b: 0, a: 1}
    - _FlatRimColor: {r: 0.6698113, g: 0.6698113, b: 0.6698113, a: 1}
    - _FlatSpecularColor: {r: 0.79187846, g: 0.47641504, b: 1, a: 1}
    - _LightmapDirection: {r: 0, g: 1, b: 0, a: 0}
    - _UnityShadowColor: {r: 0.85023, g: 0.85034, b: 0.85045, a: 0.85056}
  m_BuildTextureStacks: []
